@startuml

title __COMPONENTS's Class Diagram__\n

  namespace fr.cnam.foad.nfa035.badges.gui {
    namespace components {
      class fr.cnam.foad.nfa035.badges.gui.components.BadgePanel {
          + BadgePanel()
          # paintComponent()
      }
    }
  }
  

  namespace fr.cnam.foad.nfa035.badges.gui {
    namespace components {
      class fr.cnam.foad.nfa035.badges.gui.components.BadgesPanelFactory {
          {static} - RESOURCES_PATH : String
          + createInstance()
      }
    }
  }
  

  fr.cnam.foad.nfa035.badges.gui.components.BadgePanel -up-|> javax.swing.JPanel
  fr.cnam.foad.nfa035.badges.gui.components.BadgePanel o-- fr.cnam.foad.nfa035.badges.wallet.model.DigitalBadge : badge
  fr.cnam.foad.nfa035.badges.gui.components.BadgePanel o-- fr.cnam.foad.nfa035.badges.wallet.dao.DirectAccessBadgeWalletDAO : dao
  fr.cnam.foad.nfa035.badges.gui.components.BadgesPanelFactory o-- fr.cnam.foad.nfa035.badges.wallet.dao.DirectAccessBadgeWalletDAO : dao
  fr.cnam.foad.nfa035.badges.gui.components.BadgesPanelFactory o-- fr.cnam.foad.nfa035.badges.gui.view.DisplayedBadgeHolder : displayedBadgeHolder


right footer


PlantUML diagram generated by SketchIt! (https://bitbucket.org/pmesmeur/sketch.it)
For more information about this tool, please contact philippe.mesmeur@gmail.com
endfooter

@enduml
